# I made this by hand
v -100.0 -100.0 0.0
v 100.0 -100.0 0.0
v 100.0 100.0 0.0
v -100.0 100.0 0.0
vt 0.0 0.0
vt 1.0 0.0
vt 0.0 1.0
vt 1.0 1.0
vn 0.0 1.0 0.0
# front face
f 1/1/1 2/2/1 4/3/1
f 2/2/1 3/4/1 4/3/1
